[
  {
    "id": "1",
    "name": "Blumenau",
    "routes": [
      {
        "target": "6",
        "distance": 62
      }
    ]
  },
  {
    "id": "2",
    "name": "Jaraguá do Sul",
    "routes": [
      {
        "target": "1",
        "distance": 64
      }
    ]
  },
  {
    "id": "3",
    "name": "Criciúma"
  },
  {
    "id": "4",
    "name": "Curitiba"
  },
  {
    "id": "5",
    "name": "Florianópolis",
    "routes": [
      {
        "target": "3",
        "distance": 206
      }
    ]
  },
  {
    "id": "6",
    "name": "Penha",
    "routes": [
      {
        "target": "5",
        "distance": 119
      }
    ]
  },
  {
    "id": "7",
    "name": "Joinville",
    "routes": [
      {
        "target": "5",
        "distance": 119
      },
      {
        "target": "2",
        "distance": 53
      },
      {
        "target": "4",
        "distance": 130
      },
      {
        "target": "6",
        "distance": 77
      }
    ]
  }
]